<svg width="360" height="202" viewBox="0 0 360 202" fill="none" xmlns="http://www.w3.org/2000/svg">
<path d="M0 0.521261L26.5 15.131H65L121.5 49.7867L149.5 31.7793L196.5 70.852L250.5 45.7096L259.5 13.772L279.5 23.9648L295 14.6021L333.5 14.4515L360 0V49.7867V202H0V0.521261Z" fill="#C4C4C4" fill-opacity="0.66"/>
<path d="M360 0L333.5 14.6476H295L238.5 49.3929L210.5 31.339L163.5 70.5126L103 45.6459L77.5 6.47218L65 15.3288H26.5L0 0.681282V202H360V0Z" fill="#C4C4C4" fill-opacity="0.33"/>
<path d="M360 69L333.5 78.6442H295L238.5 101.521L210.5 89.6341L163.5 115.427L103 99.054L77.5 73.2614L44 92.9983L0 101.521V202H360V69Z" fill="#C4C4C4"/>
</svg>
